﻿SeriousDlqin2yrs,RevolvingUtilizationOfUnsecuredLines,age,NumberOfTime30-59DaysPastDueNotWorse,DebtRatio,MonthlyIncome,NumberOfOpenCreditLinesAndLoans,NumberOfTimes90DaysLate,NumberRealEstateLoansOrLines,NumberOfTime60-89DaysPastDueNotWorse,NumberOfDependents
0,0.061440132,22,0,0.2,1000,2,0,0,0,2
0,0.140110634,23,0,1.2,10000,1,0,0,0,3
0,0.834048027,50,0,0.7,3700,3,0,0,0,0
0,7.96E-05,71,0,0.1,2000,4,0,0,0,1
1,0.818977517,2,0,1,100,1,0,0,0,0
0,0.17,399,0,0.35,3742,3,0,0,0,5